%YAML 1.1
%TAG !u! tag:unity3d.com,2011:
--- !u!54 &8886563794493704514
Rigidbody:
  m_ObjectHideFlags: 0
  m_CorrespondingSourceObject: {fileID: 0}
  m_PrefabInstance: {fileID: 0}
  m_PrefabAsset: {fileID: 0}
  m_GameObject: {fileID: 8747500794369663865}
  serializedVersion: 2
  m_Mass: 1
  m_Drag: 0
  m_AngularDrag: 0.05
  m_UseGravity: 1
  m_IsKinematic: 0
  m_Interpolate: 0
  m_Constraints: 0
  m_CollisionDetection: 0
--- !u!1001 &739910535580400240
PrefabInstance:
  m_ObjectHideFlags: 0
  serializedVersion: 2
  m_Modification:
    m_TransformParent: {fileID: 0}
    m_Modifications:
    - target: {fileID: -4216859302048453862, guid: f4a2dad752935084fa04ca43575675a6,
        type: 3}
      propertyPath: m_LocalPosition.x
      value: 0.72
      objectReference: {fileID: 0}
    - target: {fileID: -4216859302048453862, guid: f4a2dad752935084fa04ca43575675a6,
        type: 3}
      propertyPath: m_LocalPosition.y
      value: 0.317
      objectReference: {fileID: 0}
    - target: {fileID: -4216859302048453862, guid: f4a2dad752935084fa04ca43575675a6,
        type: 3}
      propertyPath: m_LocalPosition.z
      value: 2.975
      objectReference: {fileID: 0}
    - target: {fileID: -4216859302048453862, guid: f4a2dad752935084fa04ca43575675a6,
        type: 3}
      propertyPath: m_LocalRotation.x
      value: 0
      objectReference: {fileID: 0}
    - target: {fileID: -4216859302048453862, guid: f4a2dad752935084fa04ca43575675a6,
        type: 3}
      propertyPath: m_LocalRotation.y
      value: -0
      objectReference: {fileID: 0}
    - target: {fileID: -4216859302048453862, guid: f4a2dad752935084fa04ca43575675a6,
        type: 3}
      propertyPath: m_LocalRotation.z
      value: -0
      objectReference: {fileID: 0}
    - target: {fileID: -4216859302048453862, guid: f4a2dad752935084fa04ca43575675a6,
        type: 3}
      propertyPath: m_LocalRotation.w
      value: 1
      objectReference: {fileID: 0}
    - target: {fileID: -4216859302048453862, guid: f4a2dad752935084fa04ca43575675a6,
        type: 3}
      propertyPath: m_RootOrder
      value: 0
      objectReference: {fileID: 0}
    - target: {fileID: -4216859302048453862, guid: f4a2dad752935084fa04ca43575675a6,
        type: 3}
      propertyPath: m_LocalEulerAnglesHint.x
      value: 0
      objectReference: {fileID: 0}
    - target: {fileID: -4216859302048453862, guid: f4a2dad752935084fa04ca43575675a6,
        type: 3}
      propertyPath: m_LocalEulerAnglesHint.y
      value: 0
      objectReference: {fileID: 0}
    - target: {fileID: -4216859302048453862, guid: f4a2dad752935084fa04ca43575675a6,
        type: 3}
      propertyPath: m_LocalEulerAnglesHint.z
      value: 0
      objectReference: {fileID: 0}
    - target: {fileID: -4216859302048453862, guid: f4a2dad752935084fa04ca43575675a6,
        type: 3}
      propertyPath: m_LocalScale.x
      value: 0.005801293
      objectReference: {fileID: 0}
    - target: {fileID: -4216859302048453862, guid: f4a2dad752935084fa04ca43575675a6,
        type: 3}
      propertyPath: m_LocalScale.y
      value: 0.010681413
      objectReference: {fileID: 0}
    - target: {fileID: -4216859302048453862, guid: f4a2dad752935084fa04ca43575675a6,
        type: 3}
      propertyPath: m_LocalScale.z
      value: 0.021961002
      objectReference: {fileID: 0}
    - target: {fileID: -927199367670048503, guid: f4a2dad752935084fa04ca43575675a6,
        type: 3}
      propertyPath: m_Name
      value: Bullet
      objectReference: {fileID: 0}
    m_RemovedComponents: []
  m_SourcePrefab: {fileID: 100100000, guid: f4a2dad752935084fa04ca43575675a6, type: 3}
--- !u!1 &8747500794369663865 stripped
GameObject:
  m_CorrespondingSourceObject: {fileID: -927199367670048503, guid: f4a2dad752935084fa04ca43575675a6,
    type: 3}
  m_PrefabInstance: {fileID: 739910535580400240}
  m_PrefabAsset: {fileID: 0}
